c:\users\joe zuntz\documents\visual studio 2015\projects\an ordinary desktop program1\an ordinary desktop program1\x64\debug\vc140.pdb
c:\users\joe zuntz\documents\visual studio 2015\projects\an ordinary desktop program1\an ordinary desktop program1\x64\debug\vc140.idb
c:\users\joe zuntz\documents\visual studio 2015\projects\an ordinary desktop program1\an ordinary desktop program1\x64\debug\avr_catalog.obj
c:\users\joe zuntz\documents\visual studio 2015\projects\an ordinary desktop program1\an ordinary desktop program1\x64\debug\avr_fits.obj
c:\users\joe zuntz\documents\visual studio 2015\projects\an ordinary desktop program1\an ordinary desktop program1\x64\debug\avr_gl.obj
c:\users\joe zuntz\documents\visual studio 2015\projects\an ordinary desktop program1\an ordinary desktop program1\x64\debug\avr_healpix.obj
c:\users\joe zuntz\documents\visual studio 2015\projects\an ordinary desktop program1\an ordinary desktop program1\x64\debug\avr_image.obj
c:\users\joe zuntz\documents\visual studio 2015\projects\an ordinary desktop program1\an ordinary desktop program1\x64\debug\avr_object.obj
c:\users\joe zuntz\documents\visual studio 2015\projects\an ordinary desktop program1\an ordinary desktop program1\x64\debug\avr_oculus.obj
c:\users\joe zuntz\documents\visual studio 2015\projects\an ordinary desktop program1\an ordinary desktop program1\x64\debug\avr_sphere.obj
c:\users\joe zuntz\documents\visual studio 2015\projects\an ordinary desktop program1\an ordinary desktop program1\x64\debug\avr_test.obj
c:\users\joe zuntz\documents\visual studio 2015\projects\an ordinary desktop program1\an ordinary desktop program1\x64\debug\avr_win_image.obj
c:\users\joe zuntz\documents\visual studio 2015\projects\an ordinary desktop program1\an ordinary desktop program1\x64\debug\color_map.obj
c:\users\joe zuntz\documents\visual studio 2015\projects\an ordinary desktop program1\an ordinary desktop program1\x64\debug\modern_style_initialization.obj
c:\users\joe zuntz\documents\visual studio 2015\projects\an ordinary desktop program1\an ordinary desktop program1\x64\debug\main.obj
c:\users\joe zuntz\documents\visual studio 2015\projects\an ordinary desktop program1\x64\debug\astrovr1.ilk
c:\users\joe zuntz\documents\visual studio 2015\projects\an ordinary desktop program1\x64\debug\astrovr1.exe
c:\users\joe zuntz\documents\visual studio 2015\projects\an ordinary desktop program1\x64\debug\astrovr1.pdb
c:\users\joe zuntz\documents\visual studio 2015\projects\an ordinary desktop program1\an ordinary desktop program1\x64\debug\resources.res
c:\users\joe zuntz\documents\visual studio 2015\projects\an ordinary desktop program1\an ordinary desktop program1\x64\debug\astrovr1.exe.embed.manifest.res
c:\users\joe zuntz\documents\visual studio 2015\projects\an ordinary desktop program1\an ordinary desktop program1\x64\debug\astrovr1.exe.embed.manifest
c:\users\joe zuntz\documents\visual studio 2015\projects\an ordinary desktop program1\an ordinary desktop program1\x64\debug\astrovr1_manifest.rc
c:\users\joe zuntz\documents\visual studio 2015\projects\an ordinary desktop program1\an ordinary desktop program1\x64\debug\astrovr1.tlog\cl.command.1.tlog
c:\users\joe zuntz\documents\visual studio 2015\projects\an ordinary desktop program1\an ordinary desktop program1\x64\debug\astrovr1.tlog\cl.read.1.tlog
c:\users\joe zuntz\documents\visual studio 2015\projects\an ordinary desktop program1\an ordinary desktop program1\x64\debug\astrovr1.tlog\cl.write.1.tlog
c:\users\joe zuntz\documents\visual studio 2015\projects\an ordinary desktop program1\an ordinary desktop program1\x64\debug\astrovr1.tlog\link.command.1.tlog
c:\users\joe zuntz\documents\visual studio 2015\projects\an ordinary desktop program1\an ordinary desktop program1\x64\debug\astrovr1.tlog\link.read.1.tlog
c:\users\joe zuntz\documents\visual studio 2015\projects\an ordinary desktop program1\an ordinary desktop program1\x64\debug\astrovr1.tlog\link.write.1.tlog
c:\users\joe zuntz\documents\visual studio 2015\projects\an ordinary desktop program1\an ordinary desktop program1\x64\debug\astrovr1.tlog\rc.command.1.tlog
c:\users\joe zuntz\documents\visual studio 2015\projects\an ordinary desktop program1\an ordinary desktop program1\x64\debug\astrovr1.tlog\rc.read.1.tlog
c:\users\joe zuntz\documents\visual studio 2015\projects\an ordinary desktop program1\an ordinary desktop program1\x64\debug\astrovr1.tlog\rc.write.1.tlog
