^C:\USERS\JOE ZUNTZ\DOCUMENTS\GITHUBVISUALSTUDIO\ASTROVR\AVR_CATALOG.CC|C:\USERS\JOE ZUNTZ\DOCUMENTS\GITHUBVISUALSTUDIO\ASTROVR\AVR_FITS.CC|C:\USERS\JOE ZUNTZ\DOCUMENTS\GITHUBVISUALSTUDIO\ASTROVR\AVR_GL.CC|C:\USERS\JOE ZUNTZ\DOCUMENTS\GITHUBVISUALSTUDIO\ASTROVR\AVR_IMAGE.CC|C:\USERS\JOE ZUNTZ\DOCUMENTS\GITHUBVISUALSTUDIO\ASTROVR\AVR_OBJECT.CC|C:\USERS\JOE ZUNTZ\DOCUMENTS\GITHUBVISUALSTUDIO\ASTROVR\AVR_SPHERE.CC|C:\USERS\JOE ZUNTZ\DOCUMENTS\GITHUBVISUALSTUDIO\ASTROVR\AVR_TEST.CC|C:\USERS\JOE ZUNTZ\DOCUMENTS\GITHUBVISUALSTUDIO\ASTROVR\AVR_VIEWER.CC|C:\USERS\JOE ZUNTZ\DOCUMENTS\GITHUBVISUALSTUDIO\ASTROVR\COLOR_MAP.CC|C:\USERS\JOE ZUNTZ\DOCUMENTS\GITHUBVISUALSTUDIO\ASTROVR\FBO.CC|C:\USERS\JOE ZUNTZ\DOCUMENTS\VISUAL STUDIO 2015\PROJECTS\AN ORDINARY DESKTOP PROGRAM1\AN ORDINARY DESKTOP PROGRAM1\SOURCE\BETTER_SYSTEM_DEFAULTS\MODERN_STYLE_INITIALIZATION.CPP|C:\USERS\JOE ZUNTZ\DOCUMENTS\VISUAL STUDIO 2015\PROJECTS\AN ORDINARY DESKTOP PROGRAM1\AN ORDINARY DESKTOP PROGRAM1\SOURCE\MAIN.CPP
C:\USERS\JOE ZUNTZ\DOCUMENTS\VISUAL STUDIO 2015\PROJECTS\AN ORDINARY DESKTOP PROGRAM1\AN ORDINARY DESKTOP PROGRAM1\DEBUG\VC140.PDB
C:\USERS\JOE ZUNTZ\DOCUMENTS\VISUAL STUDIO 2015\PROJECTS\AN ORDINARY DESKTOP PROGRAM1\AN ORDINARY DESKTOP PROGRAM1\DEBUG\VC140.IDB
C:\USERS\JOE ZUNTZ\DOCUMENTS\VISUAL STUDIO 2015\PROJECTS\AN ORDINARY DESKTOP PROGRAM1\AN ORDINARY DESKTOP PROGRAM1\DEBUG\AVR_CATALOG.OBJ
C:\USERS\JOE ZUNTZ\DOCUMENTS\VISUAL STUDIO 2015\PROJECTS\AN ORDINARY DESKTOP PROGRAM1\AN ORDINARY DESKTOP PROGRAM1\DEBUG\AVR_FITS.OBJ
C:\USERS\JOE ZUNTZ\DOCUMENTS\VISUAL STUDIO 2015\PROJECTS\AN ORDINARY DESKTOP PROGRAM1\AN ORDINARY DESKTOP PROGRAM1\DEBUG\AVR_GL.OBJ
C:\USERS\JOE ZUNTZ\DOCUMENTS\VISUAL STUDIO 2015\PROJECTS\AN ORDINARY DESKTOP PROGRAM1\AN ORDINARY DESKTOP PROGRAM1\DEBUG\AVR_IMAGE.OBJ
C:\USERS\JOE ZUNTZ\DOCUMENTS\VISUAL STUDIO 2015\PROJECTS\AN ORDINARY DESKTOP PROGRAM1\AN ORDINARY DESKTOP PROGRAM1\DEBUG\AVR_OBJECT.OBJ
C:\USERS\JOE ZUNTZ\DOCUMENTS\VISUAL STUDIO 2015\PROJECTS\AN ORDINARY DESKTOP PROGRAM1\AN ORDINARY DESKTOP PROGRAM1\DEBUG\AVR_SPHERE.OBJ
C:\USERS\JOE ZUNTZ\DOCUMENTS\VISUAL STUDIO 2015\PROJECTS\AN ORDINARY DESKTOP PROGRAM1\AN ORDINARY DESKTOP PROGRAM1\DEBUG\AVR_TEST.OBJ
C:\USERS\JOE ZUNTZ\DOCUMENTS\VISUAL STUDIO 2015\PROJECTS\AN ORDINARY DESKTOP PROGRAM1\AN ORDINARY DESKTOP PROGRAM1\DEBUG\AVR_VIEWER.OBJ
C:\USERS\JOE ZUNTZ\DOCUMENTS\VISUAL STUDIO 2015\PROJECTS\AN ORDINARY DESKTOP PROGRAM1\AN ORDINARY DESKTOP PROGRAM1\DEBUG\COLOR_MAP.OBJ
C:\USERS\JOE ZUNTZ\DOCUMENTS\VISUAL STUDIO 2015\PROJECTS\AN ORDINARY DESKTOP PROGRAM1\AN ORDINARY DESKTOP PROGRAM1\DEBUG\FBO.OBJ
C:\USERS\JOE ZUNTZ\DOCUMENTS\VISUAL STUDIO 2015\PROJECTS\AN ORDINARY DESKTOP PROGRAM1\AN ORDINARY DESKTOP PROGRAM1\DEBUG\MODERN_STYLE_INITIALIZATION.OBJ
C:\USERS\JOE ZUNTZ\DOCUMENTS\VISUAL STUDIO 2015\PROJECTS\AN ORDINARY DESKTOP PROGRAM1\AN ORDINARY DESKTOP PROGRAM1\DEBUG\MAIN.OBJ
^C:\USERS\JOE ZUNTZ\DOCUMENTS\GITHUBVISUALSTUDIO\ASTROVR\AVR_CATALOG.CC
C:\USERS\JOE ZUNTZ\DOCUMENTS\VISUAL STUDIO 2015\PROJECTS\AN ORDINARY DESKTOP PROGRAM1\AN ORDINARY DESKTOP PROGRAM1\DEBUG\VC140.PDB
^C:\USERS\JOE ZUNTZ\DOCUMENTS\GITHUBVISUALSTUDIO\ASTROVR\AVR_FITS.CC
C:\USERS\JOE ZUNTZ\DOCUMENTS\VISUAL STUDIO 2015\PROJECTS\AN ORDINARY DESKTOP PROGRAM1\AN ORDINARY DESKTOP PROGRAM1\DEBUG\VC140.PDB
^C:\USERS\JOE ZUNTZ\DOCUMENTS\GITHUBVISUALSTUDIO\ASTROVR\AVR_GL.CC
C:\USERS\JOE ZUNTZ\DOCUMENTS\VISUAL STUDIO 2015\PROJECTS\AN ORDINARY DESKTOP PROGRAM1\AN ORDINARY DESKTOP PROGRAM1\DEBUG\VC140.PDB
^C:\USERS\JOE ZUNTZ\DOCUMENTS\GITHUBVISUALSTUDIO\ASTROVR\AVR_IMAGE.CC
C:\USERS\JOE ZUNTZ\DOCUMENTS\VISUAL STUDIO 2015\PROJECTS\AN ORDINARY DESKTOP PROGRAM1\AN ORDINARY DESKTOP PROGRAM1\DEBUG\VC140.PDB
^C:\USERS\JOE ZUNTZ\DOCUMENTS\GITHUBVISUALSTUDIO\ASTROVR\AVR_OBJECT.CC
C:\USERS\JOE ZUNTZ\DOCUMENTS\VISUAL STUDIO 2015\PROJECTS\AN ORDINARY DESKTOP PROGRAM1\AN ORDINARY DESKTOP PROGRAM1\DEBUG\VC140.PDB
^C:\USERS\JOE ZUNTZ\DOCUMENTS\GITHUBVISUALSTUDIO\ASTROVR\AVR_SPHERE.CC
C:\USERS\JOE ZUNTZ\DOCUMENTS\VISUAL STUDIO 2015\PROJECTS\AN ORDINARY DESKTOP PROGRAM1\AN ORDINARY DESKTOP PROGRAM1\DEBUG\VC140.PDB
^C:\USERS\JOE ZUNTZ\DOCUMENTS\GITHUBVISUALSTUDIO\ASTROVR\AVR_TEST.CC
C:\USERS\JOE ZUNTZ\DOCUMENTS\VISUAL STUDIO 2015\PROJECTS\AN ORDINARY DESKTOP PROGRAM1\AN ORDINARY DESKTOP PROGRAM1\DEBUG\VC140.PDB
^C:\USERS\JOE ZUNTZ\DOCUMENTS\GITHUBVISUALSTUDIO\ASTROVR\AVR_VIEWER.CC
C:\USERS\JOE ZUNTZ\DOCUMENTS\VISUAL STUDIO 2015\PROJECTS\AN ORDINARY DESKTOP PROGRAM1\AN ORDINARY DESKTOP PROGRAM1\DEBUG\VC140.PDB
^C:\USERS\JOE ZUNTZ\DOCUMENTS\GITHUBVISUALSTUDIO\ASTROVR\COLOR_MAP.CC
C:\USERS\JOE ZUNTZ\DOCUMENTS\VISUAL STUDIO 2015\PROJECTS\AN ORDINARY DESKTOP PROGRAM1\AN ORDINARY DESKTOP PROGRAM1\DEBUG\VC140.PDB
^C:\USERS\JOE ZUNTZ\DOCUMENTS\GITHUBVISUALSTUDIO\ASTROVR\FBO.CC
C:\USERS\JOE ZUNTZ\DOCUMENTS\VISUAL STUDIO 2015\PROJECTS\AN ORDINARY DESKTOP PROGRAM1\AN ORDINARY DESKTOP PROGRAM1\DEBUG\VC140.PDB
^C:\USERS\JOE ZUNTZ\DOCUMENTS\VISUAL STUDIO 2015\PROJECTS\AN ORDINARY DESKTOP PROGRAM1\AN ORDINARY DESKTOP PROGRAM1\SOURCE\BETTER_SYSTEM_DEFAULTS\MODERN_STYLE_INITIALIZATION.CPP
C:\USERS\JOE ZUNTZ\DOCUMENTS\VISUAL STUDIO 2015\PROJECTS\AN ORDINARY DESKTOP PROGRAM1\AN ORDINARY DESKTOP PROGRAM1\DEBUG\VC140.PDB
^C:\USERS\JOE ZUNTZ\DOCUMENTS\VISUAL STUDIO 2015\PROJECTS\AN ORDINARY DESKTOP PROGRAM1\AN ORDINARY DESKTOP PROGRAM1\SOURCE\MAIN.CPP
C:\USERS\JOE ZUNTZ\DOCUMENTS\VISUAL STUDIO 2015\PROJECTS\AN ORDINARY DESKTOP PROGRAM1\AN ORDINARY DESKTOP PROGRAM1\DEBUG\VC140.PDB
