^C:\USERS\JOE ZUNTZ\DOCUMENTS\VISUAL STUDIO 2015\PROJECTS\AN ORDINARY DESKTOP PROGRAM1\AN ORDINARY DESKTOP PROGRAM1\SOURCE\RESOURCES.RC
/D NO_DEFAULT_MANIFEST=1 /l"0x0409" /nologo /fo"DEBUG\RESOURCES.RES"   C:\USERS\JOE ZUNTZ\DOCUMENTS\VISUAL STUDIO 2015\PROJECTS\AN ORDINARY DESKTOP PROGRAM1\AN ORDINARY DESKTOP PROGRAM1\SOURCE\RESOURCES.RC
^C:\USERS\JOE ZUNTZ\DOCUMENTS\VISUAL STUDIO 2015\PROJECTS\AN ORDINARY DESKTOP PROGRAM1\AN ORDINARY DESKTOP PROGRAM1\DEBUG\AN ORDINARY DESKTOP PROGRAM1_MANIFEST.RC
/nologo /fo"DEBUG\AN ORDINARY DESKTOP PROGRAM1.EXE.EMBED.MANIFEST.RES"   C:\USERS\JOE ZUNTZ\DOCUMENTS\VISUAL STUDIO 2015\PROJECTS\AN ORDINARY DESKTOP PROGRAM1\AN ORDINARY DESKTOP PROGRAM1\DEBUG\AN ORDINARY DESKTOP PROGRAM1_MANIFEST.RC
